…
crossv_mc tries to be smart about memory – rather than repeating the
dataset a bunch of times, it saves the data once and stores the indexes
for each training / testing split using a resample object. This can be
coerced to a dataframe, and can often be treated exactly like a
dataframe. However, it’s not compatible with gam, so we have to convert
each training and testing dataset (and lose that nice memory-saving
stuff in the process) using the code below. It’s worth noting, though,
that if all the models you want to fit use lm, you can skip this.

``` r
cv_df |> pull(train) |> nth(1) |> as_tibble()
```

    ## # A tibble: 79 × 3
    ##       id      x       y
    ##    <int>  <dbl>   <dbl>
    ##  1     1 0.266   1.11  
    ##  2     2 0.372   0.764 
    ##  3     3 0.573   0.358 
    ##  4     4 0.908  -3.04  
    ##  5     6 0.898  -1.99  
    ##  6     7 0.945  -3.27  
    ##  7     8 0.661  -0.615 
    ##  8     9 0.629   0.0878
    ##  9    10 0.0618  0.392 
    ## 10    11 0.206   1.63  
    ## # ℹ 69 more rows

``` r
cv_df |> pull(test) |> nth(1) |> as_tibble()
```

    ## # A tibble: 21 × 3
    ##       id      x      y
    ##    <int>  <dbl>  <dbl>
    ##  1     5 0.202   1.33 
    ##  2    12 0.177   0.836
    ##  3    19 0.380   0.982
    ##  4    22 0.212   0.710
    ##  5    28 0.382   0.932
    ##  6    31 0.482   0.498
    ##  7    37 0.794  -1.12 
    ##  8    42 0.647   0.158
    ##  9    47 0.0233 -0.148
    ## 10    56 0.0995  1.13 
    ## # ℹ 11 more rows
…
