…
- broom tidy makes anything into a tibble – very useful

# Fit another model

``` r
  nyc_airbnb %>% 
  mutate(
    borough = fct_infreq(borough),
    room_type = fct_infreq(room_type))
```

    ## # A tibble: 40,492 × 5
    ##    price stars borough neighborhood room_type      
    ##    <dbl> <dbl> <fct>   <chr>        <fct>          
    ##  1    99   5   Bronx   City Island  Private room   
    ##  2   200  NA   Bronx   City Island  Private room   
    ##  3   300  NA   Bronx   City Island  Entire home/apt
    ##  4   125   5   Bronx   City Island  Entire home/apt
    ##  5    69   5   Bronx   City Island  Private room   
    ##  6   125   5   Bronx   City Island  Entire home/apt
    ##  7    85   5   Bronx   City Island  Entire home/apt
    ##  8    39   4.5 Bronx   Allerton     Private room   
    ##  9    95   5   Bronx   Allerton     Entire home/apt
    ## 10   125   4.5 Bronx   Allerton     Entire home/apt
    ## # ℹ 40,482 more rows
…
